m = 0;
N=8;
row = [];
col = [];
diag1 = [];
diag2 = [];



y = i < N;

function print_board() {
	for (i=0; i < N; ++i)
	{
		for (j=0; j < N; ++j)
		{
			print("function print_board\n");
			if (col[i] == j)
				print(" Q");
			else
				print(" .");
		}
		print("\n");
	}
	print("\n");

	return 0;
}

function try(c) {
	if (c == N){
		print_board();
	}	
	else
	{
		for (r=0; r < N; ++r)
		{
			if (true)
			{
				o = 1;
				k = 0;
				row[r]=o;
				diag1[r+c]=o;
				diag2[r+7-c]=o;
				
				col[c]=r;
				try(c+1);
				
				row[r]=k;
				diag1[r+c]=k;
				diag2[r+7-c]=k;
			}
		}
	}
}
